{
  "url": "http://varian.com/fhir/r4/ImplementationGuide/DSS-IG",
  "name": "Decision Support Service Implementation Guide",
  "package-id": "Varian-R4-DSS",
  "ig-ver": "0.27",
  "date": "Fri, 20 Mar, 2020 08:56:53 -0400",
  "errs": 8,
  "warnings": 14,
  "hints": 0,
  "version": "4.0.1",
  "tool": "4.2.0 (3)"
}