{
  "resourceType": "ValueSet",
  "id": "EvinanceGuidelineAdherenceCodes",
  "text": {
    "status": "generated",
    "div": "<div xmlns=\"http://www.w3.org/1999/xhtml\"><h2>Evinance Guideline Adherence Codes</h2><div><p>Codes representing guideline adhererence status of a request</p>\n</div><p>This value set includes codes from the following code systems:</p><ul><li>Include these codes as defined in <a href=\"CodeSystem-EvinanceCodeSystem.html\"><code>http://varian.com/fhir/r4/CodeSystem/EvinanceCodeSystem</code></a><table class=\"none\"><tr><td style=\"white-space:nowrap\"><b>Code</b></td><td><b>Display</b></td></tr><tr><td><a href=\"CodeSystem-EvinanceCodeSystem.html#EvinanceCodeSystem-within\">within</a></td><td>Within</td><td>This patient's path through the guideline in adherent to the recommendations in the guideline.</td></tr><tr><td><a href=\"CodeSystem-EvinanceCodeSystem.html#EvinanceCodeSystem-outside\">outside</a></td><td>Outside</td><td>This patient's path is outside of guideline recommendations.</td></tr></table></li></ul></div>"
  },
  "url": "http://varian.com/fhir/r4/ValueSet/EvinanceGuidelineAdherenceCodes",
  "version": "1.0",
  "name": "EvinanceGuidelineAdherenceCodes",
  "title": "Evinance Guideline Adherence Codes",
  "status": "active",
  "date": "2020-03-20T00:00:00-04:00",
  "publisher": "Halina Labikova for Varian Medical Systems",
  "description": "Codes representing guideline adhererence status of a request",
  "compose": {
    "include": [
      {
        "system": "http://varian.com/fhir/r4/CodeSystem/EvinanceCodeSystem",
        "concept": [
          {
            "code": "within",
            "display": "Within"
          },
          {
            "code": "outside",
            "display": "Outside"
          }
        ]
      }
    ]
  }
}