{
  "resourceType": "ValueSet",
  "id": "CDSProceedToRequestInputTypes",
  "text": {
    "status": "generated",
    "div": "<div xmlns=\"http://www.w3.org/1999/xhtml\"><h2>CDSProceedToRequest Input Types</h2><div><p>Just a valueset that exists because our system doesn't read structure definitions properly</p>\n</div><p>This value set includes codes from the following code systems:</p><ul><li>Include these codes as defined in <code>http://nciterms.nci.nih.gov</code><table class=\"none\"><tr><td style=\"white-space:nowrap\"><b>Code</b></td><td><b>Display</b></td></tr><tr><td>C16205</td><td>Healthcare Activity</td><td/></tr></table></li></ul></div>"
  },
  "url": "http://varian.com/fhir/r4/ValueSet/CDSProceedToRequestInputTypes",
  "version": "1.0",
  "name": "CDSProceedToRequestInputTypes",
  "title": "CDSProceedToRequest Input Types",
  "status": "active",
  "date": "2020-03-20T00:00:00-04:00",
  "publisher": "Halina Labikova for Varian Medical Systems",
  "description": "Just a valueset that exists because our system doesn't read structure definitions properly",
  "compose": {
    "include": [
      {
        "system": "http://nciterms.nci.nih.gov",
        "concept": [
          {
            "code": "C16205",
            "display": "Healthcare Activity"
          }
        ]
      }
    ]
  }
}