{
  "resourceType": "ValueSet",
  "id": "CancerDiagnosisCodeVS",
  "text": {
    "status": "generated",
    "div": "<div xmlns=\"http://www.w3.org/1999/xhtml\"><h2>CancerDiagnosisCodeVS</h2><div><p>A valueset resource for cancer condition codes.</p>\n</div><p>This value set includes codes from the following code systems:</p><ul><li>Include these codes as defined in <code>http://hl7.org/fhir/sid/icd-10-cm</code><table class=\"none\"><tr><td style=\"white-space:nowrap\"><b>Code</b></td><td><b>Display</b></td></tr><tr><td>C34</td><td>Malignant neoplasm of bronchus and lung</td><td/></tr><tr><td>C34.0</td><td>Malignant neoplasm of main bronchus</td><td/></tr><tr><td>C34.00</td><td>Malignant neoplasm of unspecified main bronchus</td><td/></tr><tr><td>C34.01</td><td>Malignant neoplasm of right main bronchus</td><td/></tr><tr><td>C34.02</td><td>Malignant neoplasm of left main bronchus</td><td/></tr><tr><td>C34.1</td><td>Malignant neoplasm of upper lobe, bronchus or lung</td><td/></tr><tr><td>C34.10</td><td>Malignant neoplasm of upper lobe, unspecified bronchus or lung</td><td/></tr><tr><td>C34.11</td><td>Malignant neoplasm of upper lobe, right bronchus or lung</td><td/></tr><tr><td>C34.12</td><td>Malignant neoplasm of upper lobe, left bronchus or lung</td><td/></tr><tr><td>C34.2</td><td>Malignant neoplasm of middle lobe, bronchus or lung</td><td/></tr><tr><td>C34.3</td><td>Malignant neoplasm of lower lobe, bronchus or lung</td><td/></tr><tr><td>C34.30</td><td>Malignant neoplasm of lower lobe, unspecified bronchus or lung</td><td/></tr><tr><td>C34.31</td><td>Malignant neoplasm of lower lobe, right bronchus or lung</td><td/></tr><tr><td>C34.32</td><td>Malignant neoplasm of lower lobe, left bronchus or lung</td><td/></tr><tr><td>C34.8</td><td>Malignant neoplasm of overlapping sites of bronchus and lung</td><td/></tr><tr><td>C34.80</td><td>Malignant neoplasm of overlapping sites of unspecified bronchus and lung</td><td/></tr><tr><td>C34.81</td><td>Malignant neoplasm of overlapping sites of right bronchus and lung</td><td/></tr><tr><td>C34.82</td><td>Malignant neoplasm of overlapping sites of left bronchus and lung</td><td/></tr><tr><td>C34.9</td><td>Malignant neoplasm of unspecified part of bronchus or lung</td><td/></tr><tr><td>C34.90</td><td>Malignant neoplasm of unspecified part of unspecified bronchus or lung</td><td/></tr><tr><td>C34.91</td><td>Malignant neoplasm of unspecified part of right bronchus or lung</td><td/></tr><tr><td>C34.92</td><td>Malignant neoplasm of unspecified part of left bronchus or lung</td><td/></tr><tr><td>C33</td><td>Malignant neoplasm of trachea</td><td/></tr><tr><td>C39</td><td>Malignant neoplasm of other and ill-defined sites in the respiratory system and intrathoracic organs</td><td/></tr><tr><td>C39.0</td><td>Malignant neoplasm of upper respiratory tract, part unspecified</td><td/></tr><tr><td>C39.9</td><td>Malignant neoplasm of lower respiratory tract, part unspecified</td><td/></tr><tr><td>C50</td><td>Malignant neoplasm of breast</td><td/></tr><tr><td>C50.0</td><td>Malignant neoplasm of nipple and areola</td><td/></tr><tr><td>C50.01</td><td>Malignant neoplasm of nipple and areola, female</td><td/></tr><tr><td>C50.011</td><td>Malignant neoplasm of nipple and areola, right female breast</td><td/></tr><tr><td>C50.012</td><td>Malignant neoplasm of nipple and areola, left female breast</td><td/></tr><tr><td>C50.019</td><td>Malignant neoplasm of nipple and areola, unspecified female breast</td><td/></tr><tr><td>C50.02</td><td>Malignant neoplasm of nipple and areola, male</td><td/></tr><tr><td>C50.021</td><td>Malignant neoplasm of nipple and areola, right male breast</td><td/></tr><tr><td>C50.022</td><td>Malignant neoplasm of nipple and areola, left male breast</td><td/></tr><tr><td>C50.029</td><td>Malignant neoplasm of nipple and areola, unspecified male breast</td><td/></tr><tr><td>C50.1</td><td>Malignant neoplasm of central portion of breast</td><td/></tr><tr><td>C50.11</td><td>Malignant neoplasm of central portion of breast, female</td><td/></tr><tr><td>C50.111</td><td>Malignant neoplasm of central portion of right female breast</td><td/></tr><tr><td>C50.112</td><td>Malignant neoplasm of central portion of left female breast</td><td/></tr><tr><td>C50.119</td><td>Malignant neoplasm of central portion of unspecified female breast</td><td/></tr><tr><td>C50.12</td><td>Malignant neoplasm of central portion of breast, male</td><td/></tr><tr><td>C50.121</td><td>Malignant neoplasm of central portion of right male breast</td><td/></tr><tr><td>C50.122</td><td>Malignant neoplasm of central portion of left male breast</td><td/></tr><tr><td>C50.129</td><td>Malignant neoplasm of central portion of unspecified male breast</td><td/></tr><tr><td>C50.2</td><td>Malignant neoplasm of upper-inner quadrant of breast</td><td/></tr><tr><td>C50.21</td><td>Malignant neoplasm of upper-inner quadrant of breast, female</td><td/></tr><tr><td>C50.211</td><td>Malignant neoplasm of upper-inner quadrant of right female breast</td><td/></tr><tr><td>C50.212</td><td>Malignant neoplasm of upper-inner quadrant of left female breast</td><td/></tr><tr><td>C50.219</td><td>Malignant neoplasm of upper-inner quadrant of unspecified female breast</td><td/></tr><tr><td>C50.22</td><td>Malignant neoplasm of upper-inner quadrant of breast, male</td><td/></tr><tr><td>C50.221</td><td>Malignant neoplasm of upper-inner quadrant of right male breast</td><td/></tr><tr><td>C50.222</td><td>Malignant neoplasm of upper-inner quadrant of left male breast</td><td/></tr><tr><td>C50.229</td><td>Malignant neoplasm of upper-inner quadrant of unspecified male breast</td><td/></tr><tr><td>C50.3</td><td>Malignant neoplasm of lower-inner quadrant of breast</td><td/></tr><tr><td>C50.31</td><td>Malignant neoplasm of lower-inner quadrant of breast, female</td><td/></tr><tr><td>C50.311</td><td>Malignant neoplasm of lower-inner quadrant of right female breast</td><td/></tr><tr><td>C50.312</td><td>Malignant neoplasm of lower-inner quadrant of left female breast</td><td/></tr><tr><td>C50.319</td><td>Malignant neoplasm of lower-inner quadrant of unspecified female breast</td><td/></tr><tr><td>C50.32</td><td>Malignant neoplasm of lower-inner quadrant of breast, male</td><td/></tr><tr><td>C50.321</td><td>Malignant neoplasm of lower-inner quadrant of right male breast</td><td/></tr><tr><td>C50.322</td><td>Malignant neoplasm of lower-inner quadrant of left male breast</td><td/></tr><tr><td>C50.329</td><td>Malignant neoplasm of lower-inner quadrant of unspecified male breast</td><td/></tr><tr><td>C50.4</td><td>Malignant neoplasm of upper-outer quadrant of breast</td><td/></tr><tr><td>C50.41</td><td>Malignant neoplasm of upper-outer quadrant of breast, female</td><td/></tr><tr><td>C50.411</td><td>Malignant neoplasm of upper-outer quadrant of right female breast</td><td/></tr><tr><td>C50.412</td><td>Malignant neoplasm of upper-outer quadrant of left female breast</td><td/></tr><tr><td>C50.419</td><td>Malignant neoplasm of upper-outer quadrant of unspecified female breast</td><td/></tr><tr><td>C50.42</td><td>Malignant neoplasm of upper-outer quadrant of breast, male</td><td/></tr><tr><td>C50.421</td><td>Malignant neoplasm of upper-outer quadrant of right male breast</td><td/></tr><tr><td>C50.422</td><td>Malignant neoplasm of upper-outer quadrant of left male breast</td><td/></tr><tr><td>C50.429</td><td>Malignant neoplasm of upper-outer quadrant of unspecified male breast</td><td/></tr><tr><td>C50.5</td><td>Malignant neoplasm of lower-outer quadrant of breast</td><td/></tr><tr><td>C50.51</td><td>Malignant neoplasm of lower-outer quadrant of breast, female</td><td/></tr><tr><td>C50.511</td><td>Malignant neoplasm of lower-outer quadrant of right female breast</td><td/></tr><tr><td>C50.512</td><td>Malignant neoplasm of lower-outer quadrant of left female breast</td><td/></tr><tr><td>C50.519</td><td>Malignant neoplasm of lower-outer quadrant of unspecified female breast</td><td/></tr><tr><td>C50.52</td><td>Malignant neoplasm of lower-outer quadrant of breast, male</td><td/></tr><tr><td>C50.521</td><td>Malignant neoplasm of lower-outer quadrant of right male breast</td><td/></tr><tr><td>C50.522</td><td>Malignant neoplasm of lower-outer quadrant of left male breast</td><td/></tr><tr><td>C50.529</td><td>Malignant neoplasm of lower-outer quadrant of unspecified male breast</td><td/></tr><tr><td>C50.6</td><td>Malignant neoplasm of axillary tail of breast</td><td/></tr><tr><td>C50.61</td><td>Malignant neoplasm of axillary tail of breast, female</td><td/></tr><tr><td>C50.611</td><td>Malignant neoplasm of axillary tail of right female breast</td><td/></tr><tr><td>C50.612</td><td>Malignant neoplasm of axillary tail of left female breast</td><td/></tr><tr><td>C50.619</td><td>Malignant neoplasm of axillary tail of unspecified female breast</td><td/></tr><tr><td>C50.62</td><td>Malignant neoplasm of axillary tail of breast, male</td><td/></tr><tr><td>C50.621</td><td>Malignant neoplasm of axillary tail of right male breast</td><td/></tr><tr><td>C50.622</td><td>Malignant neoplasm of axillary tail of left male breast</td><td/></tr><tr><td>C50.629</td><td>Malignant neoplasm of axillary tail of unspecified male breast</td><td/></tr><tr><td>C50.8</td><td>Malignant neoplasm of overlapping sites of breast</td><td/></tr><tr><td>C50.81</td><td>Malignant neoplasm of overlapping sites of breast, female</td><td/></tr><tr><td>C50.811</td><td>Malignant neoplasm of overlapping sites of right female breast</td><td/></tr><tr><td>C50.812</td><td>Malignant neoplasm of overlapping sites of left female breast</td><td/></tr><tr><td>C50.819</td><td>Malignant neoplasm of overlapping sites of unspecified female breast</td><td/></tr><tr><td>C50.82</td><td>Malignant neoplasm of overlapping sites of breast, male</td><td/></tr><tr><td>C50.821</td><td>Malignant neoplasm of overlapping sites of right male breast</td><td/></tr><tr><td>C50.822</td><td>Malignant neoplasm of overlapping sites of left male breast</td><td/></tr><tr><td>C50.829</td><td>Malignant neoplasm of overlapping sites of unspecified male breast</td><td/></tr><tr><td>C50.9</td><td>Malignant neoplasm of breast of unspecified site</td><td/></tr><tr><td>C50.91</td><td>Malignant neoplasm of breast of unspecified site, female</td><td/></tr><tr><td>C50.911</td><td>Malignant neoplasm of unspecified site of right female breast</td><td/></tr><tr><td>C50.912</td><td>Malignant neoplasm of unspecified site of left female breast</td><td/></tr><tr><td>C50.919</td><td>Malignant neoplasm of unspecified site of unspecified female breast</td><td/></tr><tr><td>C50.92</td><td>Malignant neoplasm of breast of unspecified site, male</td><td/></tr><tr><td>C50.921</td><td>Malignant neoplasm of unspecified site of right male breast</td><td/></tr><tr><td>C50.922</td><td>Malignant neoplasm of unspecified site of left male breast</td><td/></tr><tr><td>C50.929</td><td>Malignant neoplasm of unspecified site of unspecified male breast</td><td/></tr><tr><td>C77</td><td>Secondary and unspecified malignant neoplasm of lymph nodes</td><td/></tr><tr><td>C77.3</td><td>Secondary and unspecified malignant neoplasm of axilla and upper limb lymph nodes</td><td/></tr><tr><td>C77.9</td><td>Secondary and unspecified malignant neoplasm of lymph node, unspecified</td><td/></tr><tr><td>D05.0</td><td>Lobular carcinoma in situ of breast</td><td/></tr><tr><td>D05.00</td><td>Lobular carcinoma in situ of unspecified breast</td><td/></tr><tr><td>D05.01</td><td>Lobular carcinoma in situ of right breast</td><td/></tr><tr><td>D05.02</td><td>Lobular carcinoma in situ of left breast</td><td/></tr><tr><td>D05.1</td><td>Intraductal carcinoma in situ of breast</td><td/></tr><tr><td>D05.10</td><td>Intraductal carcinoma in situ of unspecified breast</td><td/></tr><tr><td>D05.11</td><td>Intraductal carcinoma in situ of right breast</td><td/></tr><tr><td>D05.12</td><td>Intraductal carcinoma in situ of left breast</td><td/></tr><tr><td>D48.6</td><td>Neoplasm of uncertain behavior of breast</td><td/></tr><tr><td>D48.60</td><td>Neoplasm of uncertain behavior of unspecified breast</td><td/></tr><tr><td>D48.61</td><td>Neoplasm of uncertain behavior of right breast</td><td/></tr><tr><td>D48.62</td><td>Neoplasm of uncertain behavior of left breast</td><td/></tr><tr><td>C18</td><td>Malignant neoplasm of colon</td><td/></tr><tr><td>C18.0</td><td>Malignant neoplasm of cecum</td><td/></tr><tr><td>C18.1</td><td>Malignant neoplasm of appendix</td><td/></tr><tr><td>C18.2</td><td>Malignant neoplasm of ascending colon</td><td/></tr><tr><td>C18.3</td><td>Malignant neoplasm of hepatic flexure</td><td/></tr><tr><td>C18.4</td><td>Malignant neoplasm of transverse colon</td><td/></tr><tr><td>C18.5</td><td>Malignant neoplasm of splenic flexure</td><td/></tr><tr><td>C18.6</td><td>Malignant neoplasm of descending colon</td><td/></tr><tr><td>C18.7</td><td>Malignant neoplasm of sigmoid colon</td><td/></tr><tr><td>C18.8</td><td>Malignant neoplasm of overlapping sites of colon</td><td/></tr><tr><td>C18.9</td><td>Malignant neoplasm of colon, unspecified</td><td/></tr><tr><td>C17</td><td>Malignant neoplasm of small intestine</td><td/></tr><tr><td>C17.0</td><td>Malignant neoplasm of duodenum</td><td/></tr><tr><td>C17.1</td><td>Malignant neoplasm of jejunum</td><td/></tr><tr><td>C17.2</td><td>Malignant neoplasm of ileum</td><td/></tr><tr><td>C17.3</td><td>Meckel's diverticulum, malignant</td><td/></tr><tr><td>C17.8</td><td>Malignant neoplasm of overlapping sites of small intestine</td><td/></tr><tr><td>C17.9</td><td>Malignant neoplasm of small intestine, unspecified</td><td/></tr><tr><td>C45.1</td><td>Mesothelioma of peritoneum</td><td/></tr><tr><td>C45.2</td><td>Mesothelioma of pericardium</td><td/></tr><tr><td>C45.7</td><td>Mesothelioma of other sites</td><td/></tr><tr><td>C45.9</td><td>Mesothelioma, unspecified</td><td/></tr><tr><td>C20</td><td>Malignant neoplasm of rectum</td><td/></tr><tr><td>C44</td><td>Other malignant neoplasms of skin</td><td/></tr><tr><td>C44.00</td><td>Unspecified malignant neoplasm of skin of lip</td><td/></tr><tr><td>C44.09</td><td>Other specified malignant neoplasm of skin of lip</td><td/></tr><tr><td>C44.101</td><td>Unspecified malignant neoplasm of skin of unspecified eyelid, including canthus</td><td/></tr><tr><td>C44.102</td><td>Unspecified malignant neoplasm of skin of right eyelid, including canthus</td><td/></tr><tr><td>C44.109</td><td>Unspecified malignant neoplasm of skin of left eyelid, including canthus</td><td/></tr><tr><td>C44.191</td><td>Other specified malignant neoplasm of skin of unspecified eyelid, including canthus</td><td/></tr><tr><td>C44.192</td><td>Other specified malignant neoplasm of skin of right eyelid, including canthus</td><td/></tr><tr><td>C44.199</td><td>Other specified malignant neoplasm of skin of left eyelid, including canthus</td><td/></tr><tr><td>C44.201</td><td>Unspecified malignant neoplasm of skin of unspecified ear and external auricular canal</td><td/></tr><tr><td>C44.202</td><td>Unspecified malignant neoplasm of skin of right ear and external auricular canal</td><td/></tr><tr><td>C44.209</td><td>Unspecified malignant neoplasm of skin of left ear and external auricular canal</td><td/></tr><tr><td>C44.291</td><td>Other specified malignant neoplasm of skin of unspecified ear and external auricular canal</td><td/></tr><tr><td>C44.292</td><td>Other specified malignant neoplasm of skin of right ear and external auricular canal</td><td/></tr><tr><td>C44.299</td><td>Other specified malignant neoplasm of skin of left ear and external auricular canal</td><td/></tr><tr><td>C44.300</td><td>Unspecified malignant neoplasm of skin of unspecified part of face</td><td/></tr><tr><td>C44.301</td><td>Unspecified malignant neoplasm of skin of nose</td><td/></tr><tr><td>C44.309</td><td>Unspecified malignant neoplasm of skin of other parts of face</td><td/></tr><tr><td>C44.390</td><td>Other specified malignant neoplasm of skin of unspecified parts of face</td><td/></tr><tr><td>C44.391</td><td>Other specified malignant neoplasm of skin of nose</td><td/></tr><tr><td>C44.399</td><td>Other specified malignant neoplasm of skin of other parts of face</td><td/></tr><tr><td>C44.40</td><td>Unspecified malignant neoplasm of skin of scalp and neck</td><td/></tr><tr><td>C44.49</td><td>Other specified malignant neoplasm of skin of scalp and neck</td><td/></tr><tr><td>C44.500</td><td>Unspecified malignant neoplasm of anal skin</td><td/></tr><tr><td>C44.501</td><td>Unspecified malignant neoplasm of skin of breast</td><td/></tr><tr><td>C44.509</td><td>Unspecified malignant neoplasm of skin of other part of trunk</td><td/></tr><tr><td>C44.590</td><td>Other specified malignant neoplasm of anal skin</td><td/></tr><tr><td>C44.591</td><td>Other specified malignant neoplasm of skin of breast</td><td/></tr><tr><td>C44.599</td><td>Other specified malignant neoplasm of skin of other part of trunk</td><td/></tr><tr><td>C44.601</td><td>Unspecified malignant neoplasm of skin of unspecified upper limb, including shoulder</td><td/></tr><tr><td>C44.602</td><td>Unspecified malignant neoplasm of skin of left upper limb, including shoulder</td><td/></tr><tr><td>C44.609</td><td>Unspecified malignant neoplasm of skin of left upper limb, including shoulder</td><td/></tr><tr><td>C44.691</td><td>Other specified malignant neoplasm of skin of unspecified upper limb, including shoulder</td><td/></tr><tr><td>C44.692</td><td>Other specified malignant neoplasm of skin of right upper limb, including shoulder</td><td/></tr><tr><td>C44.699</td><td>Other specified malignant neoplasm of skin of left upper limb, including shoulder</td><td/></tr><tr><td>C44.701</td><td>Unspecified malignant neoplasm of skin of unspecified lower limb, including hip</td><td/></tr><tr><td>C44.702</td><td>Unspecified malignant neoplasm of skin of right lower limb, including hip</td><td/></tr><tr><td>C44.709</td><td>Unspecified malignant neoplasm of skin of left lower limb, including hip</td><td/></tr><tr><td>C44.791</td><td>Other specified malignant neoplasm of skin of unspecified lower limb, including hip</td><td/></tr><tr><td>C44.792</td><td>Other specified malignant neoplasm of skin of right lower limb, including hip</td><td/></tr><tr><td>C44.799</td><td>Other specified malignant neoplasm of skin of left lower limb, including hip</td><td/></tr><tr><td>C44.80</td><td>Unspecified malignant neoplasm of overlapping sites of skin</td><td/></tr><tr><td>C44.89</td><td>Other specified malignant neoplasm of overlapping sites of skin</td><td/></tr><tr><td>C44.90</td><td>Unspecified malignant neoplasm of skin, unspecified</td><td/></tr><tr><td>C44.99</td><td>Other specified malignant neoplasm of skin, unspecified</td><td/></tr><tr><td>D48.5</td><td>Neoplasm of uncertain behavior of skin</td><td/></tr><tr><td>C43</td><td>Malignant melanoma of skin</td><td/></tr><tr><td>C43.0</td><td>Malignant melanoma of lip</td><td/></tr><tr><td>C43.1</td><td>Malignant melanoma of eyelid, including canthus</td><td/></tr><tr><td>C43.10</td><td>Malignant melanoma of unspecified eyelid, including canthus</td><td/></tr><tr><td>C43.11</td><td>Malignant melanoma of right eyelid, including canthus</td><td/></tr><tr><td>C43.12</td><td>Malignant melanoma of left eyelid, including canthus</td><td/></tr><tr><td>C43.2</td><td>Malignant melanoma of ear and external auricular canal</td><td/></tr><tr><td>C43.20</td><td>Malignant melanoma of unspecified ear and external auricular canal</td><td/></tr><tr><td>C43.21</td><td>Malignant melanoma of right ear and external auricular canal</td><td/></tr><tr><td>C43.22</td><td>Malignant melanoma of left ear and external auricular canal</td><td/></tr><tr><td>C43.3</td><td>Malignant melanoma of other and unspecified parts of face</td><td/></tr><tr><td>C43.30</td><td>Malignant melanoma of unspecified part of face</td><td/></tr><tr><td>C43.31</td><td>Malignant melanoma of nose</td><td/></tr><tr><td>C43.39</td><td>Malignant melanoma of other parts of face</td><td/></tr><tr><td>C43.4</td><td>Malignant melanoma of scalp and neck</td><td/></tr><tr><td>C43.5</td><td>Malignant melanoma of trunk</td><td/></tr><tr><td>C43.51</td><td>Malignant melanoma of anal skin</td><td/></tr><tr><td>C43.52</td><td>Malignant melanoma of skin of breast</td><td/></tr><tr><td>C43.59</td><td>Malignant melanoma of other part of trunk</td><td/></tr><tr><td>C43.6</td><td>Malignant melanoma of upper limb, including shoulder</td><td/></tr><tr><td>C43.60</td><td>Malignant melanoma of unspecified upper limb, including shoulder</td><td/></tr><tr><td>C43.61</td><td>Malignant melanoma of right upper limb, including shoulder</td><td/></tr><tr><td>C43.62</td><td>Malignant melanoma of left upper limb, including shoulder</td><td/></tr><tr><td>C43.7</td><td>Malignant melanoma of lower limb, including hip</td><td/></tr><tr><td>C43.70</td><td>Malignant melanoma of unspecified lower limb, including hip</td><td/></tr><tr><td>C43.71</td><td>Malignant melanoma of right lower limb, including hip</td><td/></tr><tr><td>C43.72</td><td>Malignant melanoma of left lower limb, including hip</td><td/></tr><tr><td>C43.8</td><td>Overlapping malignant melanoma of skin</td><td/></tr><tr><td>C43.9</td><td>Malignant melanoma of skin, unspecified</td><td/></tr><tr><td>C44.0</td><td>Skin of lip</td><td/></tr><tr><td>C44.1</td><td>Skin of eyelid, including canthus</td><td/></tr><tr><td>C44.2</td><td>Skin of ear and external auricular canal</td><td/></tr><tr><td>C44.3</td><td>Skin of other and unspecified parts of face</td><td/></tr><tr><td>C80.0</td><td>Disseminated malignant neoplasm, unspecified</td><td/></tr><tr><td>C80.1</td><td>Malignant (primary) neoplasm, unspecified</td><td/></tr><tr><td>C64</td><td>Malignant neoplasm of kidney, except renal pelvis</td><td/></tr><tr><td>C64.2</td><td>Malignant neoplasm of left kidney, except renal pelvis</td><td/></tr><tr><td>C64.1</td><td>Malignant neoplasm of right kidney, except renal pelvis</td><td/></tr><tr><td>C64.9</td><td>Malignant neoplasm of unspecified kidney, except renal pelvis</td><td/></tr><tr><td>D41.0</td><td>Neoplasm of uncertain behavior of kidney</td><td/></tr><tr><td>D41.02</td><td>Neoplasm of uncertain behavior of left kidney</td><td/></tr><tr><td>D41.01</td><td>Neoplasm of uncertain behavior of right kidney</td><td/></tr><tr><td>D41.00</td><td>Neoplasm of uncertain behavior of unspecified kidney</td><td/></tr><tr><td>C25</td><td>Malignant neoplasm of pancreas</td><td/></tr><tr><td>C25.0</td><td>Malignant neoplasm of head of pancreas</td><td/></tr><tr><td>C25.1</td><td>Malignant neoplasm of body of pancreas</td><td/></tr><tr><td>C25.2</td><td>Malignant neoplasm of tail of pancreas</td><td/></tr><tr><td>C25.3</td><td>Malignant neoplasm of pancreatic duct</td><td/></tr><tr><td>C25.4</td><td>Malignant neoplasm of endocrine pancreas</td><td/></tr><tr><td>C25.7</td><td>Malignant neoplasm of other parts of pancreas</td><td/></tr><tr><td>C25.8</td><td>Malignant neoplasm of overlapping sites of pancreas</td><td/></tr><tr><td>C25.9</td><td>Malignant neoplasm of pancreas, unspecified</td><td/></tr><tr><td>K86.9</td><td>Disease of pancreas, unspecified</td><td/></tr><tr><td>K83.8</td><td>Other specified diseases of biliary tract</td><td/></tr><tr><td>K86.89</td><td>Other specified diseases of pancreas</td><td/></tr><tr><td>D37.8</td><td>Neoplasm of uncertain behavior of endocrine pancreas</td><td/></tr><tr><td>D49.0</td><td>Neoplasm of unspecified behavior of digestive system</td><td/></tr><tr><td>D49.9</td><td>Neoplasm of unspecified behavior of unspecified site</td><td/></tr><tr><td>C61</td><td>Malignant neoplasm of prostate</td><td/></tr><tr><td>C31.1</td><td>Malignant neoplasm of ethmoidal sinus</td><td/></tr><tr><td>C32.0</td><td>Malignant neoplasm of glottis</td><td/></tr><tr><td>D02.0</td><td>Carcinoma in situ of larynx</td><td/></tr><tr><td>C11.0</td><td>Malignant neoplasm of superior wall of nasopharynx</td><td/></tr><tr><td>C11.1</td><td>Malignant neoplasm of posterior wall of nasopharynx</td><td/></tr><tr><td>C11.2</td><td>Malignant neoplasm of lateral wall of nasopharynx</td><td/></tr><tr><td>C11.3</td><td>Malignant neoplasm of anterior wall of nasopharynx</td><td/></tr><tr><td>C11.8</td><td>Malignant neoplasm of overlapping sites of nasopharynx</td><td/></tr><tr><td>C11.9</td><td>Malignant neoplasm of nasopharynx, unspecified</td><td/></tr><tr><td>C13.0</td><td>Malignant neoplasm of postcricoid region</td><td/></tr><tr><td>C13.1</td><td>Malignant neoplasm of aryepiglottic fold, hypopharyngeal aspect</td><td/></tr><tr><td>C13.2</td><td>Malignant neoplasm of posterior wall of hypopharynx</td><td/></tr><tr><td>C13.8</td><td>Malignant neoplasm of overlapping sites of hypopharynx</td><td/></tr><tr><td>C13.9</td><td>Malignant neoplasm of hypopharynx, unspecified</td><td/></tr><tr><td>C00.0</td><td>Malignant neoplasm of external upper lip</td><td/></tr><tr><td>C00.1</td><td>Malignant neoplasm of external lower lip</td><td/></tr><tr><td>C00.2</td><td>Malignant neoplasm of external lip, unspecified</td><td/></tr><tr><td>C00.3</td><td>Malignant neoplasm of upper lip, inner aspect</td><td/></tr><tr><td>C00.4</td><td>Malignant neoplasm of lower lip, inner aspect</td><td/></tr><tr><td>C00.5</td><td>Malignant neoplasm of lip, unspecified, inner aspect</td><td/></tr><tr><td>C00.6</td><td>Malignant neoplasm of commissure of lip, unspecified</td><td/></tr><tr><td>C00.8</td><td>Malignant neoplasm of overlapping sites of lip</td><td/></tr><tr><td>C00.9</td><td>Malignant neoplasm of lip, unspecified</td><td/></tr><tr><td>C31.0</td><td>Malignant neoplasm of maxillary sinus</td><td/></tr><tr><td>C02.0</td><td>Malignant neoplasm of dorsal surface of tongue</td><td/></tr><tr><td>C02.1</td><td>Malignant neoplasm of border of tongue</td><td/></tr><tr><td>C02.2</td><td>Malignant neoplasm of ventral surface of tongue</td><td/></tr><tr><td>C02.3</td><td>Malignant neoplasm of anterior two-thirds of tongue, part unspecified</td><td/></tr><tr><td>C03.0</td><td>Malignant neoplasm of upper gum</td><td/></tr><tr><td>C03.1</td><td>Malignant neoplasm of lower gum</td><td/></tr><tr><td>C03.9</td><td>Malignant neoplasm of gum, unspecified</td><td/></tr><tr><td>C04.0</td><td>Malignant neoplasm of anterior floor of mouth</td><td/></tr><tr><td>C04.1</td><td>Malignant neoplasm of lateral floor of mouth</td><td/></tr><tr><td>C04.8</td><td>Malignant neoplasm of overlapping sites of floor of mouth</td><td/></tr><tr><td>C04.9</td><td>Malignant neoplasm of floor of mouth, unspecified</td><td/></tr><tr><td>C05.0</td><td>Malignant neoplasm of hard palate</td><td/></tr><tr><td>C06.0</td><td>Malignant neoplasm of cheek mucosa</td><td/></tr><tr><td>C06.1</td><td>Malignant neoplasm of vestibule of mouth</td><td/></tr><tr><td>C06.2</td><td>Malignant neoplasm of retromolar area</td><td/></tr><tr><td>C01</td><td>Malignant neoplasm of base of tongue</td><td/></tr><tr><td>C02.4</td><td>Malignant neoplasm of lingual tonsil</td><td/></tr><tr><td>C05.1</td><td>Malignant neoplasm of soft palate</td><td/></tr><tr><td>C05.2</td><td>Malignant neoplasm of uvula</td><td/></tr><tr><td>C09.0</td><td>Malignant neoplasm of tonsillar fossa</td><td/></tr><tr><td>C09.1</td><td>Malignant neoplasm of tonsillar pillar (anterior) (posterior)</td><td/></tr><tr><td>C09.8</td><td>Malignant neoplasm of overlapping sites of tonsil</td><td/></tr><tr><td>C09.9</td><td>Malignant neoplasm of tonsil, unspecified</td><td/></tr><tr><td>C10.0</td><td>Malignant neoplasm of vallecula</td><td/></tr><tr><td>C10.1</td><td>Malignant neoplasm of anterior surface of epiglottis</td><td/></tr><tr><td>C10.2</td><td>Malignant neoplasm of lateral wall of oropharynx</td><td/></tr><tr><td>C10.3</td><td>Malignant neoplasm of posterior wall of oropharynx</td><td/></tr><tr><td>C10.4</td><td>Malignant neoplasm of branchial cleft</td><td/></tr><tr><td>C10.8</td><td>Malignant neoplasm of overlapping sites of oropharynx</td><td/></tr><tr><td>C10.9</td><td>Malignant neoplasm of oropharynx, unspecified</td><td/></tr><tr><td>C06.9</td><td>Malignant neoplasm of mouth, unspecified</td><td/></tr><tr><td>C07</td><td>Malignant neoplasm of parotid gland</td><td/></tr><tr><td>C08.0</td><td>Malignant neoplasm of submandibular gland</td><td/></tr><tr><td>C08.1</td><td>Malignant neoplasm of sublingual gland</td><td/></tr><tr><td>C08.9</td><td>Malignant neoplasm of major salivary gland, unspecified</td><td/></tr><tr><td>C77</td><td>Secondary and unspecified malignant neoplasm of lymph nodes of head, face and neck</td><td/></tr><tr><td>C32.1</td><td>Malignant neoplasm of supraglottis</td><td/></tr><tr><td>C02.8</td><td>Malignant neoplasm of overlapping sites of tongue</td><td/></tr><tr><td>C02.9</td><td>Malignant neoplasm of tongue, unspecified</td><td/></tr><tr><td>C05.8</td><td>Malignant neoplasm of overlapping sites of palate</td><td/></tr><tr><td>C05.9</td><td>Malignant neoplasm of palate, unspecified</td><td/></tr><tr><td>C06.80</td><td>Malignant neoplasm of overlapping sites of unspecified parts of mouth</td><td/></tr><tr><td>C06.89</td><td>Malignant neoplasm of overlapping sites of other parts of mouth</td><td/></tr><tr><td>C14.0</td><td>Malignant neoplasm of pharynx, unspecified</td><td/></tr><tr><td>C14.2</td><td>Malignant neoplasm of Waldeyer's ring</td><td/></tr><tr><td>C14.8</td><td>Malignant neoplasm of overlapping sites of lip, oral cavity and pharynx</td><td/></tr><tr><td>C77.9</td><td>Secondary and unspecified malignant neoplasm of lymph node, unspecified</td><td/></tr><tr><td>C78</td><td>Secondary malignant neoplasm of respiratory and digestive organs</td><td/></tr><tr><td>C78.0</td><td>Secondary malignant neoplasm of lung</td><td/></tr><tr><td>C78.00</td><td>Secondary malignant neoplasm of unspecified lung</td><td/></tr><tr><td>C78.01</td><td>Secondary malignant neoplasm of right lung</td><td/></tr><tr><td>C78.02</td><td>Secondary malignant neoplasm of left lung</td><td/></tr><tr><td>C78.1</td><td>Secondary malignant neoplasm of mediastinum</td><td/></tr><tr><td>C78.2</td><td>Secondary malignant neoplasm of pleura</td><td/></tr><tr><td>C78.3</td><td>Secondary malignant neoplasm of other and unspecified respiratory organs</td><td/></tr><tr><td>C78.30</td><td>Secondary malignant neoplasm of unspecified respiratory organ</td><td/></tr><tr><td>C78.39</td><td>Secondary malignant neoplasm of other respiratory organs</td><td/></tr><tr><td>C78.4</td><td>Secondary malignant neoplasm of small intestine</td><td/></tr><tr><td>C78.5</td><td>Secondary malignant neoplasm of large intestine and rectum</td><td/></tr><tr><td>C78.6</td><td>Secondary malignant neoplasm of retroperitoneum and peritoneum</td><td/></tr><tr><td>C78.7</td><td>Secondary malignant neoplasm of liver and intrahepatic bile duct</td><td/></tr><tr><td>C78.8</td><td>Secondary malignant neoplasm of other and unspecified digestive organs</td><td/></tr><tr><td>C78.80</td><td>Secondary malignant neoplasm of unspecified digestive organ</td><td/></tr><tr><td>C78.89</td><td>Secondary malignant neoplasm of other digestive organs</td><td/></tr><tr><td>C79</td><td>Secondary malignant neoplasm of other and unspecified sites</td><td/></tr><tr><td>C79.0</td><td>Secondary malignant neoplasm of kidney and renal pelvis</td><td/></tr><tr><td>C79.00</td><td>Secondary malignant neoplasm of unspecified kidney and renal pelvis</td><td/></tr><tr><td>C79.01</td><td>Secondary malignant neoplasm of right kidney and renal pelvis</td><td/></tr><tr><td>C79.02</td><td>Secondary malignant neoplasm of left kidney and renal pelvis</td><td/></tr><tr><td>C79.1</td><td>Secondary malignant neoplasm of bladder and other and unspecified urinary organs</td><td/></tr><tr><td>C79.10</td><td>Secondary malignant neoplasm of unspecified urinary organs</td><td/></tr><tr><td>C79.11</td><td>Secondary malignant neoplasm of bladder</td><td/></tr><tr><td>C79.19</td><td>Secondary malignant neoplasm of other urinary organs</td><td/></tr><tr><td>C79.2</td><td>Secondary malignant neoplasm of skin</td><td/></tr><tr><td>C79.3</td><td>Secondary malignant neoplasm of brain and cerebral meninges</td><td/></tr><tr><td>C79.31</td><td>Secondary malignant neoplasm of brain</td><td/></tr><tr><td>C79.32</td><td>Secondary malignant neoplasm of cerebral meninges</td><td/></tr><tr><td>C79.4</td><td>Secondary malignant neoplasm of other and unspecified parts of nervous system</td><td/></tr><tr><td>C79.40</td><td>Secondary malignant neoplasm of unspecified part of nervous system</td><td/></tr><tr><td>C79.49</td><td>Secondary malignant neoplasm of other parts of nervous system</td><td/></tr><tr><td>C79.5</td><td>Secondary malignant neoplasm of bone and bone marrow</td><td/></tr><tr><td>C79.51</td><td>Secondary malignant neoplasm of bone</td><td/></tr><tr><td>C79.52</td><td>Secondary malignant neoplasm of bone marrow</td><td/></tr><tr><td>C79.6</td><td>Secondary malignant neoplasm of ovary</td><td/></tr><tr><td>C79.60</td><td>Secondary malignant neoplasm of unspecified ovary</td><td/></tr><tr><td>C79.61</td><td>Secondary malignant neoplasm of right ovary</td><td/></tr><tr><td>C79.62</td><td>Secondary malignant neoplasm of left ovary</td><td/></tr><tr><td>C79.7</td><td>Secondary malignant neoplasm of adrenal gland</td><td/></tr><tr><td>C79.70</td><td>Secondary malignant neoplasm of unspecified adrenal gland</td><td/></tr><tr><td>C79.71</td><td>Secondary malignant neoplasm of right adrenal gland</td><td/></tr><tr><td>C79.72</td><td>Secondary malignant neoplasm of left adrenal gland</td><td/></tr><tr><td>C79.8</td><td>Secondary malignant neoplasm of other specified sites</td><td/></tr><tr><td>C79.81</td><td>Secondary malignant neoplasm of breast</td><td/></tr><tr><td>C79.82</td><td>Secondary malignant neoplasm of genital organs</td><td/></tr><tr><td>C79.89</td><td>Secondary malignant neoplasm of other specified sites</td><td/></tr><tr><td>C79.9</td><td>Secondary malignant neoplasm of unspecified site</td><td/></tr></table></li><li>Include these codes as defined in <code>http://nciterms.nci.nih.gov</code><table class=\"none\"><tr><td style=\"white-space:nowrap\"><b>Code</b></td><td><b>Display</b></td></tr><tr><td>C4600</td><td>Benign Salivary Gland Neoplasm</td><td/></tr><tr><td>C7575</td><td>Breast Phyllodes Tumor</td><td/></tr><tr><td>C3811</td><td>Malignant Salivary Gland Neoplasm</td><td/></tr><tr><td>C38156</td><td>Metachronous Malignant Neoplasm</td><td/></tr><tr><td>C3813</td><td>Metastatic Malignant Neoplasm in the Brain</td><td/></tr><tr><td>C114828</td><td>Mucosal Melanoma</td><td/></tr><tr><td>C139565</td><td>Multiple Primary Lung Cancers</td><td/></tr><tr><td>C47857</td><td>Paget Disease of the Breast</td><td/></tr><tr><td>C35936</td><td>Pedunculated Lesion</td><td/></tr><tr><td>C8625</td><td>Recurrent Colorectal Carcinoma</td><td/></tr><tr><td>C35935</td><td>Sessile Lesion</td><td/></tr></table></li></ul></div>"
  },
  "url": "http://varian.com/fhir/r4/ValueSet/CancerDiagnosisCodeVS",
  "version": "1.0",
  "name": "CancerDiagnosisCodeVS",
  "title": "Cancer Condition Codes Values",
  "status": "active",
  "date": "2019-05-28T00:00:00-04:00",
  "publisher": "Halina Labikova for Varian Medical Systems",
  "description": "A valueset resource for cancer condition codes.",
  "compose": {
    "include": [
      {
        "system": "http://hl7.org/fhir/sid/icd-10-cm",
        "concept": [
          {
            "code": "C34",
            "display": "Malignant neoplasm of bronchus and lung"
          },
          {
            "code": "C34.0",
            "display": "Malignant neoplasm of main bronchus"
          },
          {
            "code": "C34.00",
            "display": "Malignant neoplasm of unspecified main bronchus"
          },
          {
            "code": "C34.01",
            "display": "Malignant neoplasm of right main bronchus"
          },
          {
            "code": "C34.02",
            "display": "Malignant neoplasm of left main bronchus"
          },
          {
            "code": "C34.1",
            "display": "Malignant neoplasm of upper lobe, bronchus or lung"
          },
          {
            "code": "C34.10",
            "display": "Malignant neoplasm of upper lobe, unspecified bronchus or lung"
          },
          {
            "code": "C34.11",
            "display": "Malignant neoplasm of upper lobe, right bronchus or lung"
          },
          {
            "code": "C34.12",
            "display": "Malignant neoplasm of upper lobe, left bronchus or lung"
          },
          {
            "code": "C34.2",
            "display": "Malignant neoplasm of middle lobe, bronchus or lung"
          },
          {
            "code": "C34.3",
            "display": "Malignant neoplasm of lower lobe, bronchus or lung"
          },
          {
            "code": "C34.30",
            "display": "Malignant neoplasm of lower lobe, unspecified bronchus or lung"
          },
          {
            "code": "C34.31",
            "display": "Malignant neoplasm of lower lobe, right bronchus or lung"
          },
          {
            "code": "C34.32",
            "display": "Malignant neoplasm of lower lobe, left bronchus or lung"
          },
          {
            "code": "C34.8",
            "display": "Malignant neoplasm of overlapping sites of bronchus and lung"
          },
          {
            "code": "C34.80",
            "display": "Malignant neoplasm of overlapping sites of unspecified bronchus and lung"
          },
          {
            "code": "C34.81",
            "display": "Malignant neoplasm of overlapping sites of right bronchus and lung"
          },
          {
            "code": "C34.82",
            "display": "Malignant neoplasm of overlapping sites of left bronchus and lung"
          },
          {
            "code": "C34.9",
            "display": "Malignant neoplasm of unspecified part of bronchus or lung"
          },
          {
            "code": "C34.90",
            "display": "Malignant neoplasm of unspecified part of unspecified bronchus or lung"
          },
          {
            "code": "C34.91",
            "display": "Malignant neoplasm of unspecified part of right bronchus or lung"
          },
          {
            "code": "C34.92",
            "display": "Malignant neoplasm of unspecified part of left bronchus or lung"
          },
          {
            "code": "C33",
            "display": "Malignant neoplasm of trachea"
          },
          {
            "code": "C39",
            "display": "Malignant neoplasm of other and ill-defined sites in the respiratory system and intrathoracic organs"
          },
          {
            "code": "C39.0",
            "display": "Malignant neoplasm of upper respiratory tract, part unspecified"
          },
          {
            "code": "C39.9",
            "display": "Malignant neoplasm of lower respiratory tract, part unspecified"
          },
          {
            "code": "C50",
            "display": "Malignant neoplasm of breast"
          },
          {
            "code": "C50.0",
            "display": "Malignant neoplasm of nipple and areola"
          },
          {
            "code": "C50.01",
            "display": "Malignant neoplasm of nipple and areola, female"
          },
          {
            "code": "C50.011",
            "display": "Malignant neoplasm of nipple and areola, right female breast"
          },
          {
            "code": "C50.012",
            "display": "Malignant neoplasm of nipple and areola, left female breast"
          },
          {
            "code": "C50.019",
            "display": "Malignant neoplasm of nipple and areola, unspecified female breast"
          },
          {
            "code": "C50.02",
            "display": "Malignant neoplasm of nipple and areola, male"
          },
          {
            "code": "C50.021",
            "display": "Malignant neoplasm of nipple and areola, right male breast"
          },
          {
            "code": "C50.022",
            "display": "Malignant neoplasm of nipple and areola, left male breast"
          },
          {
            "code": "C50.029",
            "display": "Malignant neoplasm of nipple and areola, unspecified male breast"
          },
          {
            "code": "C50.1",
            "display": "Malignant neoplasm of central portion of breast"
          },
          {
            "code": "C50.11",
            "display": "Malignant neoplasm of central portion of breast, female"
          },
          {
            "code": "C50.111",
            "display": "Malignant neoplasm of central portion of right female breast"
          },
          {
            "code": "C50.112",
            "display": "Malignant neoplasm of central portion of left female breast"
          },
          {
            "code": "C50.119",
            "display": "Malignant neoplasm of central portion of unspecified female breast"
          },
          {
            "code": "C50.12",
            "display": "Malignant neoplasm of central portion of breast, male"
          },
          {
            "code": "C50.121",
            "display": "Malignant neoplasm of central portion of right male breast"
          },
          {
            "code": "C50.122",
            "display": "Malignant neoplasm of central portion of left male breast"
          },
          {
            "code": "C50.129",
            "display": "Malignant neoplasm of central portion of unspecified male breast"
          },
          {
            "code": "C50.2",
            "display": "Malignant neoplasm of upper-inner quadrant of breast"
          },
          {
            "code": "C50.21",
            "display": "Malignant neoplasm of upper-inner quadrant of breast, female"
          },
          {
            "code": "C50.211",
            "display": "Malignant neoplasm of upper-inner quadrant of right female breast"
          },
          {
            "code": "C50.212",
            "display": "Malignant neoplasm of upper-inner quadrant of left female breast"
          },
          {
            "code": "C50.219",
            "display": "Malignant neoplasm of upper-inner quadrant of unspecified female breast"
          },
          {
            "code": "C50.22",
            "display": "Malignant neoplasm of upper-inner quadrant of breast, male"
          },
          {
            "code": "C50.221",
            "display": "Malignant neoplasm of upper-inner quadrant of right male breast"
          },
          {
            "code": "C50.222",
            "display": "Malignant neoplasm of upper-inner quadrant of left male breast"
          },
          {
            "code": "C50.229",
            "display": "Malignant neoplasm of upper-inner quadrant of unspecified male breast"
          },
          {
            "code": "C50.3",
            "display": "Malignant neoplasm of lower-inner quadrant of breast"
          },
          {
            "code": "C50.31",
            "display": "Malignant neoplasm of lower-inner quadrant of breast, female"
          },
          {
            "code": "C50.311",
            "display": "Malignant neoplasm of lower-inner quadrant of right female breast"
          },
          {
            "code": "C50.312",
            "display": "Malignant neoplasm of lower-inner quadrant of left female breast"
          },
          {
            "code": "C50.319",
            "display": "Malignant neoplasm of lower-inner quadrant of unspecified female breast"
          },
          {
            "code": "C50.32",
            "display": "Malignant neoplasm of lower-inner quadrant of breast, male"
          },
          {
            "code": "C50.321",
            "display": "Malignant neoplasm of lower-inner quadrant of right male breast"
          },
          {
            "code": "C50.322",
            "display": "Malignant neoplasm of lower-inner quadrant of left male breast"
          },
          {
            "code": "C50.329",
            "display": "Malignant neoplasm of lower-inner quadrant of unspecified male breast"
          },
          {
            "code": "C50.4",
            "display": "Malignant neoplasm of upper-outer quadrant of breast"
          },
          {
            "code": "C50.41",
            "display": "Malignant neoplasm of upper-outer quadrant of breast, female"
          },
          {
            "code": "C50.411",
            "display": "Malignant neoplasm of upper-outer quadrant of right female breast"
          },
          {
            "code": "C50.412",
            "display": "Malignant neoplasm of upper-outer quadrant of left female breast"
          },
          {
            "code": "C50.419",
            "display": "Malignant neoplasm of upper-outer quadrant of unspecified female breast"
          },
          {
            "code": "C50.42",
            "display": "Malignant neoplasm of upper-outer quadrant of breast, male"
          },
          {
            "code": "C50.421",
            "display": "Malignant neoplasm of upper-outer quadrant of right male breast"
          },
          {
            "code": "C50.422",
            "display": "Malignant neoplasm of upper-outer quadrant of left male breast"
          },
          {
            "code": "C50.429",
            "display": "Malignant neoplasm of upper-outer quadrant of unspecified male breast"
          },
          {
            "code": "C50.5",
            "display": "Malignant neoplasm of lower-outer quadrant of breast"
          },
          {
            "code": "C50.51",
            "display": "Malignant neoplasm of lower-outer quadrant of breast, female"
          },
          {
            "code": "C50.511",
            "display": "Malignant neoplasm of lower-outer quadrant of right female breast"
          },
          {
            "code": "C50.512",
            "display": "Malignant neoplasm of lower-outer quadrant of left female breast"
          },
          {
            "code": "C50.519",
            "display": "Malignant neoplasm of lower-outer quadrant of unspecified female breast"
          },
          {
            "code": "C50.52",
            "display": "Malignant neoplasm of lower-outer quadrant of breast, male"
          },
          {
            "code": "C50.521",
            "display": "Malignant neoplasm of lower-outer quadrant of right male breast"
          },
          {
            "code": "C50.522",
            "display": "Malignant neoplasm of lower-outer quadrant of left male breast"
          },
          {
            "code": "C50.529",
            "display": "Malignant neoplasm of lower-outer quadrant of unspecified male breast"
          },
          {
            "code": "C50.6",
            "display": "Malignant neoplasm of axillary tail of breast"
          },
          {
            "code": "C50.61",
            "display": "Malignant neoplasm of axillary tail of breast, female"
          },
          {
            "code": "C50.611",
            "display": "Malignant neoplasm of axillary tail of right female breast"
          },
          {
            "code": "C50.612",
            "display": "Malignant neoplasm of axillary tail of left female breast"
          },
          {
            "code": "C50.619",
            "display": "Malignant neoplasm of axillary tail of unspecified female breast"
          },
          {
            "code": "C50.62",
            "display": "Malignant neoplasm of axillary tail of breast, male"
          },
          {
            "code": "C50.621",
            "display": "Malignant neoplasm of axillary tail of right male breast"
          },
          {
            "code": "C50.622",
            "display": "Malignant neoplasm of axillary tail of left male breast"
          },
          {
            "code": "C50.629",
            "display": "Malignant neoplasm of axillary tail of unspecified male breast"
          },
          {
            "code": "C50.8",
            "display": "Malignant neoplasm of overlapping sites of breast"
          },
          {
            "code": "C50.81",
            "display": "Malignant neoplasm of overlapping sites of breast, female"
          },
          {
            "code": "C50.811",
            "display": "Malignant neoplasm of overlapping sites of right female breast"
          },
          {
            "code": "C50.812",
            "display": "Malignant neoplasm of overlapping sites of left female breast"
          },
          {
            "code": "C50.819",
            "display": "Malignant neoplasm of overlapping sites of unspecified female breast"
          },
          {
            "code": "C50.82",
            "display": "Malignant neoplasm of overlapping sites of breast, male"
          },
          {
            "code": "C50.821",
            "display": "Malignant neoplasm of overlapping sites of right male breast"
          },
          {
            "code": "C50.822",
            "display": "Malignant neoplasm of overlapping sites of left male breast"
          },
          {
            "code": "C50.829",
            "display": "Malignant neoplasm of overlapping sites of unspecified male breast"
          },
          {
            "code": "C50.9",
            "display": "Malignant neoplasm of breast of unspecified site"
          },
          {
            "code": "C50.91",
            "display": "Malignant neoplasm of breast of unspecified site, female"
          },
          {
            "code": "C50.911",
            "display": "Malignant neoplasm of unspecified site of right female breast"
          },
          {
            "code": "C50.912",
            "display": "Malignant neoplasm of unspecified site of left female breast"
          },
          {
            "code": "C50.919",
            "display": "Malignant neoplasm of unspecified site of unspecified female breast"
          },
          {
            "code": "C50.92",
            "display": "Malignant neoplasm of breast of unspecified site, male"
          },
          {
            "code": "C50.921",
            "display": "Malignant neoplasm of unspecified site of right male breast"
          },
          {
            "code": "C50.922",
            "display": "Malignant neoplasm of unspecified site of left male breast"
          },
          {
            "code": "C50.929",
            "display": "Malignant neoplasm of unspecified site of unspecified male breast"
          },
          {
            "code": "C77",
            "display": "Secondary and unspecified malignant neoplasm of lymph nodes"
          },
          {
            "code": "C77.3",
            "display": "Secondary and unspecified malignant neoplasm of axilla and upper limb lymph nodes"
          },
          {
            "code": "C77.9",
            "display": "Secondary and unspecified malignant neoplasm of lymph node, unspecified"
          },
          {
            "code": "D05.0",
            "display": "Lobular carcinoma in situ of breast"
          },
          {
            "code": "D05.00",
            "display": "Lobular carcinoma in situ of unspecified breast"
          },
          {
            "code": "D05.01",
            "display": "Lobular carcinoma in situ of right breast"
          },
          {
            "code": "D05.02",
            "display": "Lobular carcinoma in situ of left breast"
          },
          {
            "code": "D05.1",
            "display": "Intraductal carcinoma in situ of breast"
          },
          {
            "code": "D05.10",
            "display": "Intraductal carcinoma in situ of unspecified breast"
          },
          {
            "code": "D05.11",
            "display": "Intraductal carcinoma in situ of right breast"
          },
          {
            "code": "D05.12",
            "display": "Intraductal carcinoma in situ of left breast"
          },
          {
            "code": "D48.6",
            "display": "Neoplasm of uncertain behavior of breast"
          },
          {
            "code": "D48.60",
            "display": "Neoplasm of uncertain behavior of unspecified breast"
          },
          {
            "code": "D48.61",
            "display": "Neoplasm of uncertain behavior of right breast"
          },
          {
            "code": "D48.62",
            "display": "Neoplasm of uncertain behavior of left breast"
          },
          {
            "code": "C18",
            "display": "Malignant neoplasm of colon"
          },
          {
            "code": "C18.0",
            "display": "Malignant neoplasm of cecum"
          },
          {
            "code": "C18.1",
            "display": "Malignant neoplasm of appendix"
          },
          {
            "code": "C18.2",
            "display": "Malignant neoplasm of ascending colon"
          },
          {
            "code": "C18.3",
            "display": "Malignant neoplasm of hepatic flexure"
          },
          {
            "code": "C18.4",
            "display": "Malignant neoplasm of transverse colon"
          },
          {
            "code": "C18.5",
            "display": "Malignant neoplasm of splenic flexure"
          },
          {
            "code": "C18.6",
            "display": "Malignant neoplasm of descending colon"
          },
          {
            "code": "C18.7",
            "display": "Malignant neoplasm of sigmoid colon"
          },
          {
            "code": "C18.8",
            "display": "Malignant neoplasm of overlapping sites of colon"
          },
          {
            "code": "C18.9",
            "display": "Malignant neoplasm of colon, unspecified"
          },
          {
            "code": "C17",
            "display": "Malignant neoplasm of small intestine"
          },
          {
            "code": "C17.0",
            "display": "Malignant neoplasm of duodenum"
          },
          {
            "code": "C17.1",
            "display": "Malignant neoplasm of jejunum"
          },
          {
            "code": "C17.2",
            "display": "Malignant neoplasm of ileum"
          },
          {
            "code": "C17.3",
            "display": "Meckel's diverticulum, malignant"
          },
          {
            "code": "C17.8",
            "display": "Malignant neoplasm of overlapping sites of small intestine"
          },
          {
            "code": "C17.9",
            "display": "Malignant neoplasm of small intestine, unspecified"
          },
          {
            "code": "C45.1",
            "display": "Mesothelioma of peritoneum"
          },
          {
            "code": "C45.2",
            "display": "Mesothelioma of pericardium"
          },
          {
            "code": "C45.7",
            "display": "Mesothelioma of other sites"
          },
          {
            "code": "C45.9",
            "display": "Mesothelioma, unspecified"
          },
          {
            "code": "C20",
            "display": "Malignant neoplasm of rectum"
          },
          {
            "code": "C44",
            "display": "Other malignant neoplasms of skin"
          },
          {
            "code": "C44.00",
            "display": "Unspecified malignant neoplasm of skin of lip"
          },
          {
            "code": "C44.09",
            "display": "Other specified malignant neoplasm of skin of lip"
          },
          {
            "code": "C44.101",
            "display": "Unspecified malignant neoplasm of skin of unspecified eyelid, including canthus"
          },
          {
            "code": "C44.102",
            "display": "Unspecified malignant neoplasm of skin of right eyelid, including canthus"
          },
          {
            "code": "C44.109",
            "display": "Unspecified malignant neoplasm of skin of left eyelid, including canthus"
          },
          {
            "code": "C44.191",
            "display": "Other specified malignant neoplasm of skin of unspecified eyelid, including canthus"
          },
          {
            "code": "C44.192",
            "display": "Other specified malignant neoplasm of skin of right eyelid, including canthus"
          },
          {
            "code": "C44.199",
            "display": "Other specified malignant neoplasm of skin of left eyelid, including canthus"
          },
          {
            "code": "C44.201",
            "display": "Unspecified malignant neoplasm of skin of unspecified ear and external auricular canal"
          },
          {
            "code": "C44.202",
            "display": "Unspecified malignant neoplasm of skin of right ear and external auricular canal"
          },
          {
            "code": "C44.209",
            "display": "Unspecified malignant neoplasm of skin of left ear and external auricular canal"
          },
          {
            "code": "C44.291",
            "display": "Other specified malignant neoplasm of skin of unspecified ear and external auricular canal"
          },
          {
            "code": "C44.292",
            "display": "Other specified malignant neoplasm of skin of right ear and external auricular canal"
          },
          {
            "code": "C44.299",
            "display": "Other specified malignant neoplasm of skin of left ear and external auricular canal"
          },
          {
            "code": "C44.300",
            "display": "Unspecified malignant neoplasm of skin of unspecified part of face"
          },
          {
            "code": "C44.301",
            "display": "Unspecified malignant neoplasm of skin of nose"
          },
          {
            "code": "C44.309",
            "display": "Unspecified malignant neoplasm of skin of other parts of face"
          },
          {
            "code": "C44.390",
            "display": "Other specified malignant neoplasm of skin of unspecified parts of face"
          },
          {
            "code": "C44.391",
            "display": "Other specified malignant neoplasm of skin of nose"
          },
          {
            "code": "C44.399",
            "display": "Other specified malignant neoplasm of skin of other parts of face"
          },
          {
            "code": "C44.40",
            "display": "Unspecified malignant neoplasm of skin of scalp and neck"
          },
          {
            "code": "C44.49",
            "display": "Other specified malignant neoplasm of skin of scalp and neck"
          },
          {
            "code": "C44.500",
            "display": "Unspecified malignant neoplasm of anal skin"
          },
          {
            "code": "C44.501",
            "display": "Unspecified malignant neoplasm of skin of breast"
          },
          {
            "code": "C44.509",
            "display": "Unspecified malignant neoplasm of skin of other part of trunk"
          },
          {
            "code": "C44.590",
            "display": "Other specified malignant neoplasm of anal skin"
          },
          {
            "code": "C44.591",
            "display": "Other specified malignant neoplasm of skin of breast"
          },
          {
            "code": "C44.599",
            "display": "Other specified malignant neoplasm of skin of other part of trunk"
          },
          {
            "code": "C44.601",
            "display": "Unspecified malignant neoplasm of skin of unspecified upper limb, including shoulder"
          },
          {
            "code": "C44.602",
            "display": "Unspecified malignant neoplasm of skin of left upper limb, including shoulder"
          },
          {
            "code": "C44.609",
            "display": "Unspecified malignant neoplasm of skin of left upper limb, including shoulder"
          },
          {
            "code": "C44.691",
            "display": "Other specified malignant neoplasm of skin of unspecified upper limb, including shoulder"
          },
          {
            "code": "C44.692",
            "display": "Other specified malignant neoplasm of skin of right upper limb, including shoulder"
          },
          {
            "code": "C44.699",
            "display": "Other specified malignant neoplasm of skin of left upper limb, including shoulder"
          },
          {
            "code": "C44.701",
            "display": "Unspecified malignant neoplasm of skin of unspecified lower limb, including hip"
          },
          {
            "code": "C44.702",
            "display": "Unspecified malignant neoplasm of skin of right lower limb, including hip"
          },
          {
            "code": "C44.709",
            "display": "Unspecified malignant neoplasm of skin of left lower limb, including hip"
          },
          {
            "code": "C44.791",
            "display": "Other specified malignant neoplasm of skin of unspecified lower limb, including hip"
          },
          {
            "code": "C44.792",
            "display": "Other specified malignant neoplasm of skin of right lower limb, including hip"
          },
          {
            "code": "C44.799",
            "display": "Other specified malignant neoplasm of skin of left lower limb, including hip"
          },
          {
            "code": "C44.80",
            "display": "Unspecified malignant neoplasm of overlapping sites of skin"
          },
          {
            "code": "C44.89",
            "display": "Other specified malignant neoplasm of overlapping sites of skin"
          },
          {
            "code": "C44.90",
            "display": "Unspecified malignant neoplasm of skin, unspecified"
          },
          {
            "code": "C44.99",
            "display": "Other specified malignant neoplasm of skin, unspecified"
          },
          {
            "code": "D48.5",
            "display": "Neoplasm of uncertain behavior of skin"
          },
          {
            "code": "C43",
            "display": "Malignant melanoma of skin"
          },
          {
            "code": "C43.0",
            "display": "Malignant melanoma of lip"
          },
          {
            "code": "C43.1",
            "display": "Malignant melanoma of eyelid, including canthus"
          },
          {
            "code": "C43.10",
            "display": "Malignant melanoma of unspecified eyelid, including canthus"
          },
          {
            "code": "C43.11",
            "display": "Malignant melanoma of right eyelid, including canthus"
          },
          {
            "code": "C43.12",
            "display": "Malignant melanoma of left eyelid, including canthus"
          },
          {
            "code": "C43.2",
            "display": "Malignant melanoma of ear and external auricular canal"
          },
          {
            "code": "C43.20",
            "display": "Malignant melanoma of unspecified ear and external auricular canal"
          },
          {
            "code": "C43.21",
            "display": "Malignant melanoma of right ear and external auricular canal"
          },
          {
            "code": "C43.22",
            "display": "Malignant melanoma of left ear and external auricular canal"
          },
          {
            "code": "C43.3",
            "display": "Malignant melanoma of other and unspecified parts of face"
          },
          {
            "code": "C43.30",
            "display": "Malignant melanoma of unspecified part of face"
          },
          {
            "code": "C43.31",
            "display": "Malignant melanoma of nose"
          },
          {
            "code": "C43.39",
            "display": "Malignant melanoma of other parts of face"
          },
          {
            "code": "C43.4",
            "display": "Malignant melanoma of scalp and neck"
          },
          {
            "code": "C43.5",
            "display": "Malignant melanoma of trunk"
          },
          {
            "code": "C43.51",
            "display": "Malignant melanoma of anal skin"
          },
          {
            "code": "C43.52",
            "display": "Malignant melanoma of skin of breast"
          },
          {
            "code": "C43.59",
            "display": "Malignant melanoma of other part of trunk"
          },
          {
            "code": "C43.6",
            "display": "Malignant melanoma of upper limb, including shoulder"
          },
          {
            "code": "C43.60",
            "display": "Malignant melanoma of unspecified upper limb, including shoulder"
          },
          {
            "code": "C43.61",
            "display": "Malignant melanoma of right upper limb, including shoulder"
          },
          {
            "code": "C43.62",
            "display": "Malignant melanoma of left upper limb, including shoulder"
          },
          {
            "code": "C43.7",
            "display": "Malignant melanoma of lower limb, including hip"
          },
          {
            "code": "C43.70",
            "display": "Malignant melanoma of unspecified lower limb, including hip"
          },
          {
            "code": "C43.71",
            "display": "Malignant melanoma of right lower limb, including hip"
          },
          {
            "code": "C43.72",
            "display": "Malignant melanoma of left lower limb, including hip"
          },
          {
            "code": "C43.8",
            "display": "Overlapping malignant melanoma of skin"
          },
          {
            "code": "C43.9",
            "display": "Malignant melanoma of skin, unspecified"
          },
          {
            "code": "C44.0",
            "display": "Skin of lip"
          },
          {
            "code": "C44.1",
            "display": "Skin of eyelid, including canthus"
          },
          {
            "code": "C44.2",
            "display": "Skin of ear and external auricular canal"
          },
          {
            "code": "C44.3",
            "display": "Skin of other and unspecified parts of face"
          },
          {
            "code": "C80.0",
            "display": "Disseminated malignant neoplasm, unspecified"
          },
          {
            "code": "C80.1",
            "display": "Malignant (primary) neoplasm, unspecified"
          },
          {
            "code": "C64",
            "display": "Malignant neoplasm of kidney, except renal pelvis"
          },
          {
            "code": "C64.2",
            "display": "Malignant neoplasm of left kidney, except renal pelvis"
          },
          {
            "code": "C64.1",
            "display": "Malignant neoplasm of right kidney, except renal pelvis"
          },
          {
            "code": "C64.9",
            "display": "Malignant neoplasm of unspecified kidney, except renal pelvis"
          },
          {
            "code": "D41.0",
            "display": "Neoplasm of uncertain behavior of kidney"
          },
          {
            "code": "D41.02",
            "display": "Neoplasm of uncertain behavior of left kidney"
          },
          {
            "code": "D41.01",
            "display": "Neoplasm of uncertain behavior of right kidney"
          },
          {
            "code": "D41.00",
            "display": "Neoplasm of uncertain behavior of unspecified kidney"
          },
          {
            "code": "C25",
            "display": "Malignant neoplasm of pancreas"
          },
          {
            "code": "C25.0",
            "display": "Malignant neoplasm of head of pancreas"
          },
          {
            "code": "C25.1",
            "display": "Malignant neoplasm of body of pancreas"
          },
          {
            "code": "C25.2",
            "display": "Malignant neoplasm of tail of pancreas"
          },
          {
            "code": "C25.3",
            "display": "Malignant neoplasm of pancreatic duct"
          },
          {
            "code": "C25.4",
            "display": "Malignant neoplasm of endocrine pancreas"
          },
          {
            "code": "C25.7",
            "display": "Malignant neoplasm of other parts of pancreas"
          },
          {
            "code": "C25.8",
            "display": "Malignant neoplasm of overlapping sites of pancreas"
          },
          {
            "code": "C25.9",
            "display": "Malignant neoplasm of pancreas, unspecified"
          },
          {
            "code": "K86.9",
            "display": "Disease of pancreas, unspecified"
          },
          {
            "code": "K83.8",
            "display": "Other specified diseases of biliary tract"
          },
          {
            "code": "K86.89",
            "display": "Other specified diseases of pancreas"
          },
          {
            "code": "D37.8",
            "display": "Neoplasm of uncertain behavior of endocrine pancreas"
          },
          {
            "code": "D49.0",
            "display": "Neoplasm of unspecified behavior of digestive system"
          },
          {
            "code": "D49.9",
            "display": "Neoplasm of unspecified behavior of unspecified site"
          },
          {
            "code": "C61",
            "display": "Malignant neoplasm of prostate"
          },
          {
            "code": "C31.1",
            "display": "Malignant neoplasm of ethmoidal sinus"
          },
          {
            "code": "C32.0",
            "display": "Malignant neoplasm of glottis"
          },
          {
            "code": "D02.0",
            "display": "Carcinoma in situ of larynx"
          },
          {
            "code": "C11.0",
            "display": "Malignant neoplasm of superior wall of nasopharynx"
          },
          {
            "code": "C11.1",
            "display": "Malignant neoplasm of posterior wall of nasopharynx"
          },
          {
            "code": "C11.2",
            "display": "Malignant neoplasm of lateral wall of nasopharynx"
          },
          {
            "code": "C11.3",
            "display": "Malignant neoplasm of anterior wall of nasopharynx"
          },
          {
            "code": "C11.8",
            "display": "Malignant neoplasm of overlapping sites of nasopharynx"
          },
          {
            "code": "C11.9",
            "display": "Malignant neoplasm of nasopharynx, unspecified"
          },
          {
            "code": "C13.0",
            "display": "Malignant neoplasm of postcricoid region"
          },
          {
            "code": "C13.1",
            "display": "Malignant neoplasm of aryepiglottic fold, hypopharyngeal aspect"
          },
          {
            "code": "C13.2",
            "display": "Malignant neoplasm of posterior wall of hypopharynx"
          },
          {
            "code": "C13.8",
            "display": "Malignant neoplasm of overlapping sites of hypopharynx"
          },
          {
            "code": "C13.9",
            "display": "Malignant neoplasm of hypopharynx, unspecified"
          },
          {
            "code": "C00.0",
            "display": "Malignant neoplasm of external upper lip"
          },
          {
            "code": "C00.1",
            "display": "Malignant neoplasm of external lower lip"
          },
          {
            "code": "C00.2",
            "display": "Malignant neoplasm of external lip, unspecified"
          },
          {
            "code": "C00.3",
            "display": "Malignant neoplasm of upper lip, inner aspect"
          },
          {
            "code": "C00.4",
            "display": "Malignant neoplasm of lower lip, inner aspect"
          },
          {
            "code": "C00.5",
            "display": "Malignant neoplasm of lip, unspecified, inner aspect"
          },
          {
            "code": "C00.6",
            "display": "Malignant neoplasm of commissure of lip, unspecified"
          },
          {
            "code": "C00.8",
            "display": "Malignant neoplasm of overlapping sites of lip"
          },
          {
            "code": "C00.9",
            "display": "Malignant neoplasm of lip, unspecified"
          },
          {
            "code": "C31.0",
            "display": "Malignant neoplasm of maxillary sinus"
          },
          {
            "code": "C02.0",
            "display": "Malignant neoplasm of dorsal surface of tongue"
          },
          {
            "code": "C02.1",
            "display": "Malignant neoplasm of border of tongue"
          },
          {
            "code": "C02.2",
            "display": "Malignant neoplasm of ventral surface of tongue"
          },
          {
            "code": "C02.3",
            "display": "Malignant neoplasm of anterior two-thirds of tongue, part unspecified"
          },
          {
            "code": "C03.0",
            "display": "Malignant neoplasm of upper gum"
          },
          {
            "code": "C03.1",
            "display": "Malignant neoplasm of lower gum"
          },
          {
            "code": "C03.9",
            "display": "Malignant neoplasm of gum, unspecified"
          },
          {
            "code": "C04.0",
            "display": "Malignant neoplasm of anterior floor of mouth"
          },
          {
            "code": "C04.1",
            "display": "Malignant neoplasm of lateral floor of mouth"
          },
          {
            "code": "C04.8",
            "display": "Malignant neoplasm of overlapping sites of floor of mouth"
          },
          {
            "code": "C04.9",
            "display": "Malignant neoplasm of floor of mouth, unspecified"
          },
          {
            "code": "C05.0",
            "display": "Malignant neoplasm of hard palate"
          },
          {
            "code": "C06.0",
            "display": "Malignant neoplasm of cheek mucosa"
          },
          {
            "code": "C06.1",
            "display": "Malignant neoplasm of vestibule of mouth"
          },
          {
            "code": "C06.2",
            "display": "Malignant neoplasm of retromolar area"
          },
          {
            "code": "C01",
            "display": "Malignant neoplasm of base of tongue"
          },
          {
            "code": "C02.4",
            "display": "Malignant neoplasm of lingual tonsil"
          },
          {
            "code": "C05.1",
            "display": "Malignant neoplasm of soft palate"
          },
          {
            "code": "C05.2",
            "display": "Malignant neoplasm of uvula"
          },
          {
            "code": "C09.0",
            "display": "Malignant neoplasm of tonsillar fossa"
          },
          {
            "code": "C09.1",
            "display": "Malignant neoplasm of tonsillar pillar (anterior) (posterior)"
          },
          {
            "code": "C09.8",
            "display": "Malignant neoplasm of overlapping sites of tonsil"
          },
          {
            "code": "C09.9",
            "display": "Malignant neoplasm of tonsil, unspecified"
          },
          {
            "code": "C10.0",
            "display": "Malignant neoplasm of vallecula"
          },
          {
            "code": "C10.1",
            "display": "Malignant neoplasm of anterior surface of epiglottis"
          },
          {
            "code": "C10.2",
            "display": "Malignant neoplasm of lateral wall of oropharynx"
          },
          {
            "code": "C10.3",
            "display": "Malignant neoplasm of posterior wall of oropharynx"
          },
          {
            "code": "C10.4",
            "display": "Malignant neoplasm of branchial cleft"
          },
          {
            "code": "C10.8",
            "display": "Malignant neoplasm of overlapping sites of oropharynx"
          },
          {
            "code": "C10.9",
            "display": "Malignant neoplasm of oropharynx, unspecified"
          },
          {
            "code": "C06.9",
            "display": "Malignant neoplasm of mouth, unspecified"
          },
          {
            "code": "C07",
            "display": "Malignant neoplasm of parotid gland"
          },
          {
            "code": "C08.0",
            "display": "Malignant neoplasm of submandibular gland"
          },
          {
            "code": "C08.1",
            "display": "Malignant neoplasm of sublingual gland"
          },
          {
            "code": "C08.9",
            "display": "Malignant neoplasm of major salivary gland, unspecified"
          },
          {
            "code": "C77",
            "display": "Secondary and unspecified malignant neoplasm of lymph nodes of head, face and neck"
          },
          {
            "code": "C32.1",
            "display": "Malignant neoplasm of supraglottis"
          },
          {
            "code": "C02.8",
            "display": "Malignant neoplasm of overlapping sites of tongue"
          },
          {
            "code": "C02.9",
            "display": "Malignant neoplasm of tongue, unspecified"
          },
          {
            "code": "C05.8",
            "display": "Malignant neoplasm of overlapping sites of palate"
          },
          {
            "code": "C05.9",
            "display": "Malignant neoplasm of palate, unspecified"
          },
          {
            "code": "C06.80",
            "display": "Malignant neoplasm of overlapping sites of unspecified parts of mouth"
          },
          {
            "code": "C06.89",
            "display": "Malignant neoplasm of overlapping sites of other parts of mouth"
          },
          {
            "code": "C14.0",
            "display": "Malignant neoplasm of pharynx, unspecified"
          },
          {
            "code": "C14.2",
            "display": "Malignant neoplasm of Waldeyer's ring"
          },
          {
            "code": "C14.8",
            "display": "Malignant neoplasm of overlapping sites of lip, oral cavity and pharynx"
          },
          {
            "code": "C77.9",
            "display": "Secondary and unspecified malignant neoplasm of lymph node, unspecified"
          },
          {
            "code": "C78",
            "display": "Secondary malignant neoplasm of respiratory and digestive organs"
          },
          {
            "code": "C78.0",
            "display": "Secondary malignant neoplasm of lung"
          },
          {
            "code": "C78.00",
            "display": "Secondary malignant neoplasm of unspecified lung"
          },
          {
            "code": "C78.01",
            "display": "Secondary malignant neoplasm of right lung"
          },
          {
            "code": "C78.02",
            "display": "Secondary malignant neoplasm of left lung"
          },
          {
            "code": "C78.1",
            "display": "Secondary malignant neoplasm of mediastinum"
          },
          {
            "code": "C78.2",
            "display": "Secondary malignant neoplasm of pleura"
          },
          {
            "code": "C78.3",
            "display": "Secondary malignant neoplasm of other and unspecified respiratory organs"
          },
          {
            "code": "C78.30",
            "display": "Secondary malignant neoplasm of unspecified respiratory organ"
          },
          {
            "code": "C78.39",
            "display": "Secondary malignant neoplasm of other respiratory organs"
          },
          {
            "code": "C78.4",
            "display": "Secondary malignant neoplasm of small intestine"
          },
          {
            "code": "C78.5",
            "display": "Secondary malignant neoplasm of large intestine and rectum"
          },
          {
            "code": "C78.6",
            "display": "Secondary malignant neoplasm of retroperitoneum and peritoneum"
          },
          {
            "code": "C78.7",
            "display": "Secondary malignant neoplasm of liver and intrahepatic bile duct"
          },
          {
            "code": "C78.8",
            "display": "Secondary malignant neoplasm of other and unspecified digestive organs"
          },
          {
            "code": "C78.80",
            "display": "Secondary malignant neoplasm of unspecified digestive organ"
          },
          {
            "code": "C78.89",
            "display": "Secondary malignant neoplasm of other digestive organs"
          },
          {
            "code": "C79",
            "display": "Secondary malignant neoplasm of other and unspecified sites"
          },
          {
            "code": "C79.0",
            "display": "Secondary malignant neoplasm of kidney and renal pelvis"
          },
          {
            "code": "C79.00",
            "display": "Secondary malignant neoplasm of unspecified kidney and renal pelvis"
          },
          {
            "code": "C79.01",
            "display": "Secondary malignant neoplasm of right kidney and renal pelvis"
          },
          {
            "code": "C79.02",
            "display": "Secondary malignant neoplasm of left kidney and renal pelvis"
          },
          {
            "code": "C79.1",
            "display": "Secondary malignant neoplasm of bladder and other and unspecified urinary organs"
          },
          {
            "code": "C79.10",
            "display": "Secondary malignant neoplasm of unspecified urinary organs"
          },
          {
            "code": "C79.11",
            "display": "Secondary malignant neoplasm of bladder"
          },
          {
            "code": "C79.19",
            "display": "Secondary malignant neoplasm of other urinary organs"
          },
          {
            "code": "C79.2",
            "display": "Secondary malignant neoplasm of skin"
          },
          {
            "code": "C79.3",
            "display": "Secondary malignant neoplasm of brain and cerebral meninges"
          },
          {
            "code": "C79.31",
            "display": "Secondary malignant neoplasm of brain"
          },
          {
            "code": "C79.32",
            "display": "Secondary malignant neoplasm of cerebral meninges"
          },
          {
            "code": "C79.4",
            "display": "Secondary malignant neoplasm of other and unspecified parts of nervous system"
          },
          {
            "code": "C79.40",
            "display": "Secondary malignant neoplasm of unspecified part of nervous system"
          },
          {
            "code": "C79.49",
            "display": "Secondary malignant neoplasm of other parts of nervous system"
          },
          {
            "code": "C79.5",
            "display": "Secondary malignant neoplasm of bone and bone marrow"
          },
          {
            "code": "C79.51",
            "display": "Secondary malignant neoplasm of bone"
          },
          {
            "code": "C79.52",
            "display": "Secondary malignant neoplasm of bone marrow"
          },
          {
            "code": "C79.6",
            "display": "Secondary malignant neoplasm of ovary"
          },
          {
            "code": "C79.60",
            "display": "Secondary malignant neoplasm of unspecified ovary"
          },
          {
            "code": "C79.61",
            "display": "Secondary malignant neoplasm of right ovary"
          },
          {
            "code": "C79.62",
            "display": "Secondary malignant neoplasm of left ovary"
          },
          {
            "code": "C79.7",
            "display": "Secondary malignant neoplasm of adrenal gland"
          },
          {
            "code": "C79.70",
            "display": "Secondary malignant neoplasm of unspecified adrenal gland"
          },
          {
            "code": "C79.71",
            "display": "Secondary malignant neoplasm of right adrenal gland"
          },
          {
            "code": "C79.72",
            "display": "Secondary malignant neoplasm of left adrenal gland"
          },
          {
            "code": "C79.8",
            "display": "Secondary malignant neoplasm of other specified sites"
          },
          {
            "code": "C79.81",
            "display": "Secondary malignant neoplasm of breast"
          },
          {
            "code": "C79.82",
            "display": "Secondary malignant neoplasm of genital organs"
          },
          {
            "code": "C79.89",
            "display": "Secondary malignant neoplasm of other specified sites"
          },
          {
            "code": "C79.9",
            "display": "Secondary malignant neoplasm of unspecified site"
          }
        ]
      },
      {
        "system": "http://nciterms.nci.nih.gov",
        "concept": [
          {
            "code": "C4600",
            "display": "Benign Salivary Gland Neoplasm"
          },
          {
            "code": "C7575",
            "display": "Breast Phyllodes Tumor"
          },
          {
            "code": "C3811",
            "display": "Malignant Salivary Gland Neoplasm"
          },
          {
            "code": "C38156",
            "display": "Metachronous Malignant Neoplasm"
          },
          {
            "code": "C3813",
            "display": "Metastatic Malignant Neoplasm in the Brain"
          },
          {
            "code": "C114828",
            "display": "Mucosal Melanoma"
          },
          {
            "code": "C139565",
            "display": "Multiple Primary Lung Cancers"
          },
          {
            "code": "C47857",
            "display": "Paget Disease of the Breast"
          },
          {
            "code": "C35936",
            "display": "Pedunculated Lesion"
          },
          {
            "code": "C8625",
            "display": "Recurrent Colorectal Carcinoma"
          },
          {
            "code": "C35935",
            "display": "Sessile Lesion"
          }
        ]
      }
    ]
  }
}